{
  "sources": {
    "git_trees": [
      {
        "url": "http://git.yoctoproject.org/git/poky",
        "branch": "honister"
      },
      {
        "url": "https://github.com/ndechesne/meta-qcom",
        "branch": "honister"
      }
    ]
  },
  "container": "ubuntu-20.04",
  "envsetup": "poky/oe-init-build-env",
  "distro": "poky",
  "machine": "dragonboard-845c",
  "target": "core-image-minimal",
  "bblayers_conf": [
  "BBLAYERS += \"../meta-qcom/\""
  ],
    "artifacts": [
    "$DEPLOY_DIR"
  ],
    "environment": {
  }
}
